simulation/qsim/CEG3156_Lab1_FPAdder.msim.vcd
$comment
	File created using the following command:
		vcd file CEG3156_Lab1_FPAdder.msim.vcd -direction
$end
$date
	Thu Feb 05 16:45:19 2026
$end
$version
	ModelSim Version 10.1d
$end
$timescale
	1ps
$end
$scope module sevenBitUpCounter_vlg_vec_tst $end
$var reg 1 ! i_clock $end
$var reg 1 " i_enable $end
$var reg 1 # i_load $end
$var reg 1 $ i_resetBar $end
$var reg 7 % i_value [6:0] $end
$var wire 1 & o_Z [6] $end
$var wire 1 ' o_Z [5] $end
$var wire 1 ( o_Z [4] $end
$var wire 1 ) o_Z [3] $end
$var wire 1 * o_Z [2] $end
$var wire 1 + o_Z [1] $end
$var wire 1 , o_Z [0] $end
$var wire 1 - o_zero $end
$var wire 1 . sampler $end
$scope module i1 $end
$var wire 1 / gnd $end
$var wire 1 0 vcc $end
$var wire 1 1 unknown $end
$var tri1 1 2 devclrn $end
$var tri1 1 3 devpor $end
$var tri1 1 4 devoe $end
$var wire 1 5 o_zero~output_o $end
$var wire 1 6 o_Z[0]~output_o $end
$var wire 1 7 o_Z[1]~output_o $end
$var wire 1 8 o_Z[2]~output_o $end
$var wire 1 9 o_Z[3]~output_o $end
$var wire 1 : o_Z[4]~output_o $end
$var wire 1 ; o_Z[5]~output_o $end
$var wire 1 < o_Z[6]~output_o $end
$var wire 1 = i_value[3]~input_o $end
$var wire 1 > MSBfour|mux0|o_y~0_combout $end
$var wire 1 ? i_resetBar~input_o $end
$var wire 1 @ i_resetBar~inputclkctrl_outclk $end
$var wire 1 A i_load~input_o $end
$var wire 1 B i_value[1]~input_o $end
$var wire 1 C LSBthree|mux1|o_y~0_combout $end
$var wire 1 D i_enable~input_o $end
$var wire 1 E LSBthree|dff1|int_q~q $end
$var wire 1 F i_value[0]~input_o $end
$var wire 1 G LSBthree|mux0|o_y~0_combout $end
$var wire 1 H LSBthree|dff0|int_q~q $end
$var wire 1 I comb~0_combout $end
$var wire 1 J MSBfour|dff0|int_q~q $end
$var wire 1 K i_value[4]~input_o $end
$var wire 1 L MSBfour|mux1|o_y~0_combout $end
$var wire 1 M MSBfour|dff1|int_q~q $end
$var wire 1 N i_value[5]~input_o $end
$var wire 1 O MSBfour|mux2|o_y~0_combout $end
$var wire 1 P MSBfour|mux2|o_y~1_combout $end
$var wire 1 Q MSBfour|dff2|int_q~q $end
$var wire 1 R i_value[6]~input_o $end
$var wire 1 S MSBfour|mux3|o_y~0_combout $end
$var wire 1 T MSBfour|mux3|o_y~1_combout $end
$var wire 1 U MSBfour|dff3|int_q~q $end
$var wire 1 V MSBfour|o_zero~0_combout $end
$var wire 1 W i_clock~input_o $end
$var wire 1 X i_clock~inputclkctrl_outclk $end
$var wire 1 Y LSBthree|mux2|o_y~0_combout $end
$var wire 1 Z i_value[2]~input_o $end
$var wire 1 [ LSBthree|mux2|o_y~1_combout $end
$var wire 1 \ LSBthree|dff2|int_q~q $end
$upscope $end
$upscope $end
$enddefinitions $end
#0
$dumpvars
0!
0"
1#
1$
b1001 %
0,
0+
0*
0)
0(
0'
0&
1-
x.
0/
10
x1
12
13
14
15
06
07
08
09
0:
0;
0<
1=
1>
1?
1@
1A
0B
0C
0D
0E
1F
1G
0H
1I
0J
0K
0L
0M
0N
0O
0P
0Q
0R
0S
0T
0U
0V
0W
0X
0Y
0Z
0[
0\
$end
#10000
1!
1W
1X
0.
1J
1V
19
1)
05
0-
#20000
0!
0W
0X
1.
#30000
1!
1W
1X
0.
#40000
1"
0#
0!
1D
0A
0W
0X
1.
1L
0>
#50000
1!
1W
1X
0.
1M
0J
1H
1>
0I
0G
1C
1:
09
16
1(
0)
1,
#60000
0!
0W
0X
1.
#70000
1!
1W
1X
0.
0H
1E
1G
06
17
0,
1+
#80000
0!
0W
0X
1.
#90000
1!
1W
1X
0.
1H
1Y
0G
0C
16
1,
1[
#100000
0!
0W
0X
1.
#110000
1!
1W
1X
0.
1\
0H
0E
1G
18
06
07
1*
0,
0+
#120000
0!
0W
0X
1.
#130000
1!
1W
1X
0.
1H
0G
1C
16
1,
#140000
0!
0W
0X
1.
#150000
1!
1W
1X
0.
0H
1E
1G
06
17
0,
1+
#160000
0!
0W
0X
1.
#170000
1!
1W
1X
0.
1H
0Y
0G
0C
16
1,
0[
#180000
0!
0W
0X
1.
#190000
1!
1W
1X
0.
0\
0H
0E
1I
1G
08
06
07
0*
0,
0+
#200000
0!
0W
0X
1.
#210000
1!
1W
1X
0.
1J
1H
1O
0L
0>
0I
0G
1C
19
16
1)
1,
1P
#220000
0!
0W
0X
1.
#230000
1!
1W
1X
0.
0H
1E
1G
06
17
0,
1+
#240000
0!
0W
0X
1.
#250000
1!
1W
1X
0.
1H
1Y
0G
0C
16
1,
1[
#260000
0!
0W
0X
1.
#270000
1!
1W
1X
0.
1\
0H
0E
1G
18
06
07
1*
0,
0+
#280000
0!
0W
0X
1.
#290000
1!
1W
1X
0.
1H
0G
1C
16
1,
#300000
0!
0W
0X
1.
#310000
1!
1W
1X
0.
0H
1E
1G
06
17
0,
1+
#320000
0!
0W
0X
1.
#330000
1!
1W
1X
0.
1H
0Y
0G
0C
16
1,
0[
#340000
0!
0W
0X
1.
#350000
1!
1W
1X
0.
0\
0H
0E
1I
1G
08
06
07
0*
0,
0+
#360000
0!
0W
0X
1.
#370000
1!
1W
1X
0.
1Q
0M
0J
1H
1>
0I
0G
1C
1;
0:
09
16
1'
0(
0)
1,
#380000
0!
0W
0X
1.
#390000
1!
1W
1X
0.
0H
1E
1G
06
17
0,
1+
#400000
0!
0W
0X
1.
#410000
1!
1W
1X
0.
1H
1Y
0G
0C
16
1,
1[
#420000
0!
0W
0X
1.
#430000
1!
1W
1X
0.
1\
0H
0E
1G
18
06
07
1*
0,
0+
#440000
0!
0W
0X
1.
#450000
1!
1W
1X
0.
1H
0G
1C
16
1,
#460000
0!
0W
0X
1.
#470000
1!
1W
1X
0.
0H
1E
1G
06
17
0,
1+
#480000
0!
0W
0X
1.
#490000
1!
1W
1X
0.
1H
0Y
0G
0C
16
1,
0[
#500000
0!
0W
0X
1.
#510000
1!
1W
1X
0.
0\
0H
0E
1I
1G
08
06
07
0*
0,
0+
#520000
0!
0W
0X
1.
#530000
1!
1W
1X
0.
1J
1H
1L
0>
0I
0G
1C
19
16
1)
1,
#540000
0!
0W
0X
1.
#550000
1!
1W
1X
0.
0H
1E
1G
06
17
0,
1+
#560000
0!
0W
0X
1.
#570000
1!
1W
1X
0.
1H
1Y
0G
0C
16
1,
1[
#580000
0!
0W
0X
1.
#590000
1!
1W
1X
0.
1\
0H
0E
1G
18
06
07
1*
0,
0+
#600000
0!
0W
0X
1.
#610000
1!
1W
1X
0.
1H
0G
1C
16
1,
#620000
0!
0W
0X
1.
#630000
1!
1W
1X
0.
0H
1E
1G
06
17
0,
1+
#640000
0!
0W
0X
1.
#650000
1!
1W
1X
0.
1H
0Y
0G
0C
16
1,
0[
#660000
0!
0W
0X
1.
#670000
1!
1W
1X
0.
0\
0H
0E
1I
1G
08
06
07
0*
0,
0+
#680000
0!
0W
0X
1.
#690000
1!
1W
1X
0.
1M
0J
1H
1>
0I
0G
1C
1:
09
16
1(
0)
1,
#700000
0!
0W
0X
1.
#710000
1!
1W
1X
0.
0H
1E
1G
06
17
0,
1+
#720000
0!
0W
0X
1.
#730000
1!
1W
1X
0.
1H
1Y
0G
0C
16
1,
1[
#740000
0!
0W
0X
1.
#750000
1!
1W
1X
0.
1\
0H
0E
1G
18
06
07
1*
0,
0+
#760000
0!
0W
0X
1.
#770000
1!
1W
1X
0.
1H
0G
1C
16
1,
#780000
0!
0W
0X
1.
#790000
1!
1W
1X
0.
0H
1E
1G
06
17
0,
1+
#800000
0!
0W
0X
1.
#810000
1!
1W
1X
0.
1H
0Y
0G
0C
16
1,
0[
#820000
0!
0W
0X
1.
#830000
1!
1W
1X
0.
0\
0H
0E
1I
1G
08
06
07
0*
0,
0+
#840000
0!
0W
0X
1.
#850000
1!
1W
1X
0.
1J
1H
1S
0O
0L
0>
0I
0G
1C
19
16
1)
1,
1T
0P
#860000
0!
0W
0X
1.
#870000
1!
1W
1X
0.
0H
1E
1G
06
17
0,
1+
#880000
0!
0W
0X
1.
#890000
1!
1W
1X
0.
1H
1Y
0G
0C
16
1,
1[
#900000
0!
0W
0X
1.
#910000
1!
1W
1X
0.
1\
0H
0E
1G
18
06
07
1*
0,
0+
#920000
0!
0W
0X
1.
#930000
1!
1W
1X
0.
1H
0G
1C
16
1,
#940000
0!
0W
0X
1.
#950000
1!
1W
1X
0.
0H
1E
1G
06
17
0,
1+
#960000
0!
0W
0X
1.
#970000
1!
1W
1X
0.
1H
0Y
0G
0C
16
1,
0[
#980000
0!
0W
0X
1.
#990000
1!
1W
1X
0.
0\
0H
0E
1I
1G
08
06
07
0*
0,
0+
